<svg xmlns="http://www.w3.org/2000/svg" width="34.792" height="25.649" viewBox="0 0 34.792 25.649">
  <g id="Grupo_1148" data-name="Grupo 1148" transform="translate(-71 -685)">
    <g id="Grupo_169" data-name="Grupo 169" transform="translate(71 685)">
      <g id="Grupo_167" data-name="Grupo 167" transform="translate(9.767 0.06)">
        <path id="Caminho_585" data-name="Caminho 585" d="M823.575,18.449a3.875,3.875,0,1,0-3.875-3.875,3.929,3.929,0,0,0,3.875,3.875Zm0-1.776a2.257,2.257,0,0,1-2.1-1.534h4.117a2.014,2.014,0,0,1-2.018,1.534Zm0-4.278a2.257,2.257,0,0,1,2.1,1.534h-4.117a2.083,2.083,0,0,1,2.018-1.534Zm0,0" transform="translate(-816.794 -7.713)" fill="#fff"/>
        <path id="Caminho_586" data-name="Caminho 586" d="M824.576,7.161A10.94,10.94,0,0,0,822.961,7a6.853,6.853,0,0,0-3.875,12.512v7.1a3.123,3.123,0,0,0,2.26,2.987v2.1a.888.888,0,1,0,1.776,0V29.6a3.2,3.2,0,0,0,2.26-2.987v-6.3h0l11.14-3.794a2.015,2.015,0,0,1,1.372.081l2.018,1.049a.942.942,0,0,0,.807,0,.848.848,0,0,0,.4-.727V9.341a.848.848,0,0,0-.4-.727.733.733,0,0,0-.807,0l-2.18,1.13a2.029,2.029,0,0,1-1.211.161c-.081-.081-8.96-2.1-11.947-2.745Zm-6.861,6.7a5.166,5.166,0,1,1,5.166,5.166,5.2,5.2,0,0,1-5.166-5.166Zm5.812,8.4h-.646a.565.565,0,1,0,0,1.13h.646v.969h-.646a.565.565,0,1,0,0,1.13h.646v.969a1.372,1.372,0,0,1-2.745,0v-6.3a6.186,6.186,0,0,0,2.18.323h.646v1.776Zm15.822-6.781-.807-.4a3.789,3.789,0,0,0-2.664-.242h0l-6.942,2.341a6.544,6.544,0,0,0,.888-3.31,6.876,6.876,0,0,0-1.292-4.036l7.588,1.7h0a3.092,3.092,0,0,0,2.26-.323l.969-.484Zm0,0" transform="translate(-816.1 -7)" fill="#fff"/>
      </g>
      <g id="Grupo_168" data-name="Grupo 168" transform="translate(0 0)">
        <path id="Caminho_587" data-name="Caminho 587" d="M806.991,12.717h3.31a.552.552,0,0,0,.565-.565v-4.2a1.3,1.3,0,0,0-.242-.727.88.88,0,0,0-1.13-.161h0a5.931,5.931,0,0,0-2.906,5.086C806.426,12.555,806.668,12.717,806.991,12.717Z" transform="translate(-804.489 -6.926)" fill="#fff"/>
        <path id="Caminho_588" data-name="Caminho 588" d="M811.023,23.669h-.242V16.161a.174.174,0,0,0-.161-.161h-5a.174.174,0,0,0-.161.161v7.507h-.242A1.189,1.189,0,0,0,804,24.879v8.153a1.189,1.189,0,0,0,1.211,1.211h5.731a1.189,1.189,0,0,0,1.211-1.211V24.96A1.149,1.149,0,0,0,811.023,23.669Z" transform="translate(-804 -8.675)" fill="#fff"/>
      </g>
    </g>
  </g>
</svg>
