<svg xmlns="http://www.w3.org/2000/svg" viewBox="0 0 33.248 43.667">
  <defs>
    <style>
      .cls-1 {
        fill: #00a651;
      }
    </style>
  </defs>
  <path id="call-center-girl" class="cls-1" d="M60.937,27.717H57.88V24.745A13.581,13.581,0,0,0,59.66,21.97a2.353,2.353,0,0,0,.582-.183,4.6,4.6,0,0,0,2.078-2.652,4.578,4.578,0,0,0-.11-3.806c.076-1.561.03-5.911-2.705-8.962A8.207,8.207,0,0,0,58,5.048,5.9,5.9,0,0,0,52.188,0a6.215,6.215,0,0,0-6.076,4.937A8.312,8.312,0,0,0,43.5,7.251a10.326,10.326,0,0,0-1.384,8.077c-.779.776-.946,2.141-.359,3.806a5.481,5.481,0,0,0,1.279,2.091,2.619,2.619,0,0,0,1.395.751,15.3,15.3,0,0,0,1.827,2.9v2.846H43.157c-4.39,0-7.734,7.552-7.734,11.312a1.111,1.111,0,0,0,.624,1,37.668,37.668,0,0,0,16.093,3.637,37.346,37.346,0,0,0,6.447-.555,32.462,32.462,0,0,0,9.532-3.1,1.143,1.143,0,0,0,.553-.981C68.671,35.268,65.328,27.717,60.937,27.717Zm-16.4-10.6a18.684,18.684,0,0,0,2.655-4.057c1.728,1.8,5.432,3.925,13.3,3.936a3.321,3.321,0,0,1-.211,1.413,2.872,2.872,0,0,1-.9,1.389,1.084,1.084,0,0,0-1.329.59c-1.167,2.627-3.457,5.694-6.006,5.694a5.173,5.173,0,0,1-3.65-2.04,7.364,7.364,0,0,0,1.368.13c.048,0,.095.01.14.009a1.5,1.5,0,0,0,1.184.592h1.917a1.511,1.511,0,0,0,1.492-1.52v-.472a1.527,1.527,0,0,0-1.492-1.538H51.089A1.514,1.514,0,0,0,49.8,22a4.73,4.73,0,0,1-1.743-.283C46.405,21.1,45.207,19.514,44.54,17.121ZM52.189,2.168a3.583,3.583,0,0,1,3,1.651,13.155,13.155,0,0,0-3.046-.341h0a14.641,14.641,0,0,0-3.319.389A4.185,4.185,0,0,1,52.189,2.168ZM45.234,8.531c1.36-1.861,3.676-2.858,6.911-2.883h0a7.558,7.558,0,0,1,5.72,2.159c1.933,2.15,2.193,5.414,2.186,7.024-5.743-.071-8.762-1.337-10.3-2.4a4.486,4.486,0,0,1-1.906-2.252A1.064,1.064,0,0,0,46.7,9.287a1.1,1.1,0,0,0-1,1.1,8.034,8.034,0,0,1-1.581,3.675A7.514,7.514,0,0,1,45.234,8.531Zm2.115,21.392a.964.964,0,0,0,.973-1.048v-1.9A6.546,6.546,0,0,0,52,28.253a6.669,6.669,0,0,0,3.823-1.345v1.967a1.04,1.04,0,0,0,1.068,1.048H58.05l-6,4.7-6-4.7h1.305ZM58.211,40.98a35.3,35.3,0,0,1-20.58-2.592c.332-3.03,2.706-7.693,5-8.349l8.753,6.845a1.085,1.085,0,0,0,1.336,0l8.753-6.845c2.3.658,4.68,5.351,5,8.38A32.627,32.627,0,0,1,58.211,40.98Z" transform="translate(-35.423)"/>
</svg>
