<svg xmlns="http://www.w3.org/2000/svg" viewBox="0 0 38.721 29.467">
  <defs>
    <style>
      .cls-1 {
        fill: #ff6f00;
      }
    </style>
  </defs>
  <g id="envelope" transform="translate(0 -57.75)">
    <g id="Group_1018" data-name="Group 1018" transform="translate(0 57.75)">
      <path id="Path_907" data-name="Path 907" class="cls-1" d="M33.994,57.75H4.735A4.739,4.739,0,0,0,0,62.485v20a4.739,4.739,0,0,0,4.735,4.735H33.986a4.739,4.739,0,0,0,4.735-4.735V62.493A4.734,4.734,0,0,0,33.994,57.75Zm2.572,24.732a2.575,2.575,0,0,1-2.572,2.572H4.735a2.575,2.575,0,0,1-2.572-2.572V62.493a2.575,2.575,0,0,1,2.572-2.572H33.986a2.575,2.575,0,0,1,2.572,2.572V82.482Z" transform="translate(0 -57.75)"/>
      <path id="Path_908" data-name="Path 908" class="cls-1" d="M75.705,119.289l9.47-8.492a1.084,1.084,0,1,0-1.45-1.61L70.666,120.908l-2.548-2.275c-.008-.008-.016-.016-.016-.024a1.6,1.6,0,0,0-.176-.152l-10.367-9.278a1.084,1.084,0,0,0-1.442,1.618l9.582,8.565-9.542,8.933a1.086,1.086,0,0,0-.048,1.53,1.107,1.107,0,0,0,.793.345,1.084,1.084,0,0,0,.737-.288l9.686-9.061,2.628,2.347a1.079,1.079,0,0,0,1.442-.008l2.7-2.42,9.63,9.149a1.084,1.084,0,0,0,1.53-.04,1.086,1.086,0,0,0-.04-1.53Z" transform="translate(-51.286 -104.804)"/>
    </g>
  </g>
</svg>
