<svg xmlns="http://www.w3.org/2000/svg" viewBox="0 0 17.619 14.416">
    <defs>
        <style>
            .cls-1{fill:#fff}
        </style>
    </defs>
    <g id="responsive">
        <g id="Group_357" data-name="Group 357" transform="translate(9.21 10.011)">
            <g id="Group_356" data-name="Group 356">
                <ellipse id="Ellipse_124" cx=".4" cy=".4" class="cls-1" data-name="Ellipse 124" rx=".4" ry=".4"/>
            </g>
        </g>
        <g id="Group_359" data-name="Group 359" transform="translate(2.403 12.414)">
            <g id="Group_358" data-name="Group 358">
                <ellipse id="Ellipse_125" cx=".4" cy=".4" class="cls-1" data-name="Ellipse 125" rx=".4" ry=".4"/>
            </g>
        </g>
        <g id="Group_361" data-name="Group 361" transform="translate(1.602)">
            <g id="Group_360" data-name="Group 360">
                <path id="Path_788" d="M61.362 46.545H47.747a1.18 1.18 0 0 0-1.2 1.2v4a.4.4 0 1 0 .8 0v-4a.378.378 0 0 1 .4-.4h13.615a.378.378 0 0 1 .4.4v9.611a.378.378 0 0 1-.4.4h-9.61a.4.4 0 0 0 0 .8h.8v1.2a.378.378 0 0 1-.4.4h-.4a.4.4 0 0 0 0 .8h5.606a.4.4 0 1 0 0-.8h-.4a.378.378 0 0 1-.4-.4v-1.2h4.805a1.18 1.18 0 0 0 1.2-1.2v-9.61a1.18 1.18 0 0 0-1.201-1.201zM53.273 60.16a1.184 1.184 0 0 0 .08-.4v-1.2h2.4v1.2a1.185 1.185 0 0 0 .08.4z" class="cls-1" data-name="Path 788" transform="translate(-46.546 -46.545)"/>
            </g>
        </g>
        <g id="Group_363" data-name="Group 363" transform="translate(6.407 8.81)">
            <g id="Group_362" data-name="Group 362">
                <path id="Path_789" d="M195.392 302.545h-8.81a.4.4 0 1 0 0 .8h8.81a.4.4 0 0 0 0-.8z" class="cls-1" data-name="Path 789" transform="translate(-186.182 -302.545)"/>
            </g>
        </g>
        <g id="Group_365" data-name="Group 365" transform="translate(0 6.407)">
            <g id="Group_364" data-name="Group 364">
                <path id="Path_790" d="M4.4 232.727H1.2a1.18 1.18 0 0 0-1.2 1.2v5.606a1.18 1.18 0 0 0 1.2 1.2h3.2a1.18 1.18 0 0 0 1.2-1.2v-5.606a1.18 1.18 0 0 0-1.2-1.2zm.4 6.807a.378.378 0 0 1-.4.4H1.2a.378.378 0 0 1-.4-.4v-5.606a.378.378 0 0 1 .4-.4h3.2a.378.378 0 0 1 .4.4z" class="cls-1" data-name="Path 790" transform="translate(0 -232.727)"/>
            </g>
        </g>
    </g>
</svg>
