<svg xmlns="http://www.w3.org/2000/svg" width="30" height="30" viewBox="0 0 38.001 36.233">
  <g id="Grupo_3777" data-name="Grupo 3777" transform="translate(-582.999 -483.766)">
    <path id="Subtração_1" data-name="Subtração 1" d="M-5923.857,113.466h-17.175a.947.947,0,0,1-.968-.968v-.137a15.026,15.026,0,0,1,2.521-8.309,15.206,15.206,0,0,1,6.46-5.511,8.245,8.245,0,0,1-2.21-5.527A8.024,8.024,0,0,1-5927.214,85a8.025,8.025,0,0,1,8.016,8.015,8.024,8.024,0,0,1-8.016,8.014,7.9,7.9,0,0,1-4.007-1.105,12.958,12.958,0,0,0-6.062,4.335,12.666,12.666,0,0,0-2.644,7.134h15.934c0,.1-.005.212-.005.34a10.592,10.592,0,0,0,.142,1.732Zm-3.357-26.531a5.913,5.913,0,0,0-4.215,1.727,5.912,5.912,0,0,0-1.728,4.214,5.915,5.915,0,0,0,1.728,4.215,5.912,5.912,0,0,0,4.215,1.728A5.911,5.911,0,0,0-5923,97.091a5.913,5.913,0,0,0,1.727-4.215A5.911,5.911,0,0,0-5923,88.662,5.913,5.913,0,0,0-5927.214,86.935Zm8.538,15.661h0a12.751,12.751,0,0,0-1.075-.875.792.792,0,0,1-.421-.6,1.085,1.085,0,0,1,.282-.917,1.067,1.067,0,0,1,.764-.331,1.111,1.111,0,0,1,.619.193,14.3,14.3,0,0,1,1.88,1.645,10.444,10.444,0,0,0-2.048.889Z" transform="translate(6524.999 398.767)" fill="#fff"/>
    <path id="Subtração_2" data-name="Subtração 2" d="M-5932.5,104a9.511,9.511,0,0,1-9.5-9.5,9.511,9.511,0,0,1,9.5-9.5,9.511,9.511,0,0,1,9.5,9.5A9.51,9.51,0,0,1-5932.5,104Zm-.85-4.97h0a1.157,1.157,0,0,0,.286.037,1.131,1.131,0,0,0,.977-.564l3.933-6.812a1.118,1.118,0,0,0,.113-.856,1.116,1.116,0,0,0-.524-.683,1.128,1.128,0,0,0-.563-.151,1.133,1.133,0,0,0-.978.563l-3.24,5.616-1.557-2.695a1.126,1.126,0,0,0-.973-.562,1.126,1.126,0,0,0-.561.151,1.116,1.116,0,0,0-.523.681,1.113,1.113,0,0,0,.112.852l2.25,3.9a1.124,1.124,0,0,0,.974.562,1.123,1.123,0,0,0,.276-.034Z" transform="translate(6544 416)" fill="#fff"/>
  </g>
</svg>
