<svg xmlns="http://www.w3.org/2000/svg">
  <defs>
    <style>
      .cls-1 {
        fill: none;
        stroke: #676767;
        stroke-linecap: round;
        stroke-linejoin: round;
        stroke-miterlimit: 10;
        stroke-width: 3px;
      }
            
      .laranja {
        stroke: #ff6f00;
      }
        
      .azul {
        stroke: #0077ff;
      }    
        
      .verde {
        stroke: #00a651;
      }
        
      .cinza {
        stroke: #dcdcdc;
      }      

    </style>
  </defs>
  <g id="seta_laranja" data-name="seta_laranja" transform="translate(0 0)">
    <path id="Path_749" data-name="Path 749" class="cls-1 laranja" d="M328.2,143l-5,5-5-5" transform="translate(2128.467 -3462.5)"/>
  </g>
  
  <g id="seta_azul" data-name="seta_azul" transform="translate(0 20)">
    <path id="Path_750" data-name="Path 750" class="cls-1 azul" d="M328.2,143l-5,5-5-5" transform="translate(2128.467 -3462.5)"/>
  </g>
  
  <g id="seta_verde" data-name="seta_verde" transform="translate(0 40)">
    <path id="Path_750" data-name="Path 750" class="cls-1 verde" d="M328.2,143l-5,5-5-5" transform="translate(2128.467 -3462.5)"/>
  </g>
  
  <g id="seta_cinza" data-name="seta_cinza" transform="translate(0 60)">
    <path id="Path_750" data-name="Path 750" class="cls-1 cinza" d="M328.2,143l-5,5-5-5" transform="translate(2128.467 -3462.5)"/>
  </g>
  
  <view id='seta-laranja' viewBox='0 0 9.75 16.5' />
  <view id='seta-azul' viewBox='0 20 9.75 16.5' />   
  <view id='seta-verde' viewBox='0 40 9.75 16.5' />
  <view id='seta-cinza' viewBox='0 60 9.75 16.5' />
</svg>
